…
``` r
print(TS)
```

    ## # A tibble: 620 x 16
    ##    gender first_name last_name   age phone_number hobbies SetID Number Theme
    ##    <chr>  <chr>      <chr>     <dbl> <chr>        <list>  <int> <chr>  <chr>
    ##  1 Female Kimberly   Beckstead    24 216-555-2549 <chr [… 24701 76062  DC C…
    ##  2 Male   Neel       Garvin       35 819-555-3189 <chr [… 25626 70595  Ninj…
    ##  3 Male   Neel       Garvin       35 819-555-3189 <chr [… 24665 21031  Arch…
    ##  4 Female Chelsea    Bouchard     41 <NA>         <chr [… 24695 31048  Crea…
    ##  5 Female Chelsea    Bouchard     41 <NA>         <chr [… 25626 70595  Ninj…
    ##  6 Female Chelsea    Bouchard     41 <NA>         <chr [… 24721 10831  Duplo
    ##  7 Female Bryanna    Welsh        19 <NA>         <chr [… 24797 75138  Star…
    ##  8 Female Bryanna    Welsh        19 <NA>         <chr [… 24701 76062  DC C…
    ##  9 Male   Caleb      Garcia-W…    37 907-555-9236 <chr [… 24730 41115  Frie…
    ## 10 Male   Caleb      Garcia-W…    37 907-555-9236 <chr [… 25611 21127  Mine…
    ## # … with 610 more rows, and 7 more variables: Subtheme <chr>, Year <int>,
    ## #   Name <chr>, Pieces <int>, USPrice <dbl>, ImageURL <chr>, Quantity <dbl>
…
``` r
print(df_commits)
```

    ## # A tibble: 1,348 x 6
    ##    commit_sha     author_name file_name     hour  message        change_in_lines
    ##    <chr>          <chr>       <chr>         <chr> <chr>                    <int>
    ##  1 77288767e663b… arcoutte    README.Rmd    12    Fix README dt…               4
    ##  2 77288767e663b… arcoutte    README.md     12    Fix README dt…               4
    ##  3 85faf79c1fd74… batpigandme DESCRIPTION   13    Use https for…               2
    ##  4 ceb74a67ea0d9… batpigandme DESCRIPTION   12    Use https for…               2
    ##  5 ec0949254dbbf… romainfran… NEWS.md       09    "Better perfo…              38
    ##  6 ec0949254dbbf… romainfran… inst/include… 09    "Better perfo…              38
    ##  7 ec0949254dbbf… romainfran… inst/include… 09    "Better perfo…              38
    ##  8 ec0949254dbbf… romainfran… src/init.cpp  09    "Better perfo…              38
    ##  9 ef1c4b9294228… hadley      README.Rmd    18    Add section o…              40
    ## 10 ef1c4b9294228… hadley      README.md     18    Add section o…              40
    ## # … with 1,338 more rows
…
